<?xml version="1.0" encoding="UTF-8" standalone="no"?>
<svg
   xmlns:dc="http://purl.org/dc/elements/1.1/"
   xmlns:cc="http://creativecommons.org/ns#"
   xmlns:rdf="http://www.w3.org/1999/02/22-rdf-syntax-ns#"
   xmlns:svg="http://www.w3.org/2000/svg"
   xmlns="http://www.w3.org/2000/svg"
   xmlns:sodipodi="http://sodipodi.sourceforge.net/DTD/sodipodi-0.dtd"
   xmlns:inkscape="http://www.inkscape.org/namespaces/inkscape"
   width="31.999998"
   height="32.025974"
   viewBox="0 0 8.466666 8.4735393"
   version="1.1"
   id="svg8"
   sodipodi:docname="img-appimage-failed.svg"
   inkscape:version="1.1-dev (774eb93539, 2020-02-06)">
  <defs
     id="defs2" />
  <sodipodi:namedview
     id="base"
     pagecolor="#ffffff"
     bordercolor="#666666"
     borderopacity="1.0"
     inkscape:pageopacity="0.0"
     inkscape:pageshadow="2"
     inkscape:zoom="6.6761293"
     inkscape:cx="77.303648"
     inkscape:cy="25.26694"
     inkscape:document-units="px"
     inkscape:current-layer="layer1"
     showgrid="false"
     showguides="false"
     units="px"
     fit-margin-top="0"
     fit-margin-left="0"
     fit-margin-right="0"
     fit-margin-bottom="0"
     inkscape:snap-global="false"
     inkscape:window-width="2560"
     inkscape:window-height="1007"
     inkscape:window-x="0"
     inkscape:window-y="0"
     inkscape:window-maximized="1">
    <inkscape:grid
       type="xygrid"
       id="grid114569"
       originx="-72.76042"
       originy="-117.64312" />
  </sodipodi:namedview>
  <metadata
     id="metadata5">
    <rdf:RDF>
      <cc:Work
         rdf:about="">
        <dc:format>image/svg+xml</dc:format>
        <dc:type
           rdf:resource="http://purl.org/dc/dcmitype/StillImage" />
        <dc:title />
      </cc:Work>
    </rdf:RDF>
  </metadata>
  <g
     inkscape:label="Layer 1"
     inkscape:groupmode="layer"
     id="layer1"
     transform="translate(-72.760422,-117.64311)">
    <g
       id="g114699"
       transform="matrix(0.70221347,0,0,0.70221347,24.718001,35.690293)">
      <path
         inkscape:connector-curvature="0"
         id="path114641"
         d="m 76.376359,118.18242 -0.463802,0.69037 0.04218,1.47416 -1.03487,2.23747 -0.596909,1.37258 -0.696946,0.1993 0.01507,0.69819 -0.08936,0.48864 2.134271,0.62617 0.413361,-0.45752 1.928012,-0.23057 0.409229,0.67329 c 0,0 0.453839,-0.0769 0.577277,-0.0455 0.123437,0.0315 1.463543,-1.05639 1.463543,-1.05639 l -0.362095,-0.41488 -0.306668,-0.80544 -1.763719,-4.018 -0.363003,-1.56816 z"
         style="fill:#ffffff;fill-opacity:1;stroke:none;stroke-width:0.264583px;stroke-linecap:butt;stroke-linejoin:miter;stroke-opacity:1" />
      <path
         inkscape:connector-curvature="0"
         id="path114553"
         d="m 78.330948,126.04576 c -0.06139,-0.0386 -0.146484,-0.1191 -0.189089,-0.17893 -0.06049,-0.085 -0.122493,-0.11858 -0.283008,-0.15349 -0.269154,-0.0585 -1.066624,-0.0575 -1.407379,0.002 -0.228049,0.0397 -0.291533,0.0675 -0.416428,0.182 -0.161506,0.14812 -0.310232,0.19717 -0.489434,0.1614 -0.06413,-0.0128 -0.358757,-0.10152 -0.654732,-0.19714 -0.295974,-0.0956 -0.695304,-0.20089 -0.887398,-0.23393 -0.574413,-0.0988 -0.66802,-0.20881 -0.546426,-0.64217 0.05332,-0.19002 0.05523,-0.24786 0.01516,-0.46017 -0.07114,-0.37702 -0.0345,-0.42578 0.412534,-0.54898 0.158121,-0.0436 0.246701,-0.0943 0.340819,-0.19504 0.247445,-0.26495 0.288612,-0.34133 0.288612,-0.53548 0,-0.12639 0.03826,-0.27468 0.124841,-0.48383 0.06866,-0.16588 0.179911,-0.45372 0.247218,-0.63966 0.173229,-0.47855 0.259304,-0.63416 0.626089,-1.13189 0.391642,-0.53146 0.395984,-0.5509 0.334539,-1.49734 -0.05999,-0.92406 0.0073,-1.25932 0.307154,-1.52935 0.319395,-0.28768 0.964495,-0.40386 1.378995,-0.24836 0.572982,0.21496 0.824178,0.721 0.89135,1.79565 0.01912,0.30584 0.05092,0.6128 0.07067,0.68213 0.04278,0.15016 0.146099,0.31863 0.654217,1.06676 0.660357,0.97227 0.817787,1.39912 0.739553,2.00517 -0.0366,0.28349 -0.0341,0.31459 0.03515,0.43781 0.041,0.0729 0.0856,0.21597 0.09911,0.31782 0.03188,0.24033 0.122764,0.3851 0.297819,0.4744 0.204128,0.10414 0.256281,0.16954 0.256281,0.32136 0,0.1797 -0.09223,0.26147 -0.630151,0.5587 -0.23806,0.13154 -0.512509,0.30142 -0.609887,0.37751 -0.412344,0.3222 -0.442671,0.33799 -0.674141,0.35099 -0.171891,0.01 -0.245005,-0.003 -0.332051,-0.0578 z m 0.534866,-0.26921 c 0.06379,-0.0267 0.216168,-0.13584 0.338606,-0.24262 0.122438,-0.10678 0.388568,-0.28113 0.5914,-0.38744 0.570653,-0.29909 0.589621,-0.32914 0.317865,-0.50352 -0.220072,-0.14122 -0.287842,-0.24296 -0.315091,-0.47304 -0.01189,-0.1004 -0.04269,-0.18911 -0.06918,-0.19928 -0.02626,-0.0101 -0.09179,0.034 -0.145612,0.098 -0.123923,0.14728 -0.343333,0.2478 -0.54307,0.24881 -0.199837,0.001 -0.344762,-0.1322 -0.381702,-0.35085 -0.01584,-0.0938 -0.04456,-0.15062 -0.07611,-0.15062 -0.06115,0 -0.05528,-0.0461 -0.06618,0.5202 -0.0054,0.28048 -0.03403,0.57859 -0.07182,0.74789 -0.07537,0.33759 -0.05346,0.49804 0.08722,0.63872 0.114929,0.11493 0.167146,0.12334 0.333673,0.0538 z m -3.063822,-0.11423 c 0.180475,-0.20555 0.145111,-0.42129 -0.123291,-0.75214 -0.06403,-0.0789 -0.234497,-0.336 -0.378818,-0.57127 -0.406531,-0.66272 -0.60383,-0.80979 -0.742523,-0.55351 -0.136375,0.25199 -0.245475,0.3409 -0.479185,0.3905 -0.311981,0.0662 -0.348063,0.11193 -0.328203,0.4159 0.01053,0.16109 -0.0026,0.30694 -0.03788,0.42052 -0.0297,0.0956 -0.04561,0.19576 -0.03535,0.22249 0.02341,0.061 0.160382,0.10419 0.562469,0.17728 0.174336,0.0317 0.400353,0.0913 0.50226,0.13254 0.346893,0.14027 0.687254,0.24129 0.818362,0.2429 0.105876,10e-4 0.152047,-0.0226 0.242161,-0.12521 z m 1.364858,-0.52265 c 0.300423,-0.0477 0.566002,-0.18029 0.816068,-0.40754 0.183422,-0.16669 0.203944,-0.20063 0.229277,-0.37921 0.0153,-0.10787 0.029,-0.31202 0.03044,-0.45367 0.003,-0.29066 0.05009,-0.37028 0.219173,-0.37028 0.143264,0 0.180486,-0.0875 0.203846,-0.47902 0.02279,-0.38194 -0.03755,-0.67059 -0.267734,-1.28096 -0.207876,-0.5512 -0.576414,-1.36949 -0.669179,-1.48583 l -0.08079,-0.10132 -0.449639,0.23854 c -0.521382,0.27659 -0.625098,0.29294 -0.845509,0.13327 -0.07992,-0.0579 -0.15594,-0.12247 -0.168941,-0.1435 -0.05439,-0.088 -0.118171,-0.0317 -0.139374,0.12297 -0.02266,0.16536 -0.135834,0.41839 -0.286262,0.64006 -0.04673,0.0689 -0.138552,0.27594 -0.20406,0.46019 -0.06551,0.18425 -0.173142,0.44398 -0.239188,0.57718 -0.149262,0.30103 -0.226789,0.59188 -0.226789,0.85084 0,0.39768 0.06533,0.49727 0.614575,0.93682 0.170297,0.13629 0.335774,0.2877 0.367726,0.33646 0.0833,0.12713 0.07173,0.26019 -0.03159,0.36352 -0.04933,0.0493 -0.08969,0.0982 -0.08969,0.10853 0,0.0104 0.06637,0.0975 0.147493,0.19375 0.119573,0.14181 0.172205,0.17699 0.278037,0.18582 0.187443,0.0156 0.524716,-0.004 0.792108,-0.0466 z m -0.0014,-4.91703 c 0.221395,-0.12941 0.326439,-0.21176 0.326439,-0.25594 0,-0.0666 -0.178415,-0.16118 -0.556922,-0.29537 -0.170158,-0.0603 -0.187195,-0.0605 -0.304943,-0.003 -0.06859,0.0335 -0.204429,0.13102 -0.301856,0.21682 -0.17397,0.15321 -0.1761,0.15759 -0.119049,0.24466 0.03195,0.0488 0.135879,0.14055 0.230953,0.20396 0.222283,0.14826 0.302829,0.13593 0.725378,-0.11105 z m -1.000329,-0.62941 c -0.125356,-0.15936 -0.0722,-0.47698 0.07983,-0.47698 0.0467,0 0.170672,0.10658 0.170672,0.14673 0,0.0154 0.01641,0.0712 0.03647,0.12391 0.03026,0.0796 0.04554,0.0884 0.08969,0.0517 0.114578,-0.0951 0.02629,-0.44724 -0.139344,-0.55576 -0.177832,-0.11652 -0.381418,0.0517 -0.408917,0.33788 -0.02115,0.22015 0.0027,0.32174 0.09997,0.42617 0.101653,0.10911 0.16333,0.0629 0.07163,-0.0537 z m 1.450805,-0.0212 c 0.154596,-0.23594 0.140881,-0.51704 -0.03375,-0.69167 -0.17763,-0.17763 -0.458417,-0.13234 -0.574801,0.0927 -0.07879,0.15236 -0.06094,0.47847 0.0271,0.49521 0.04395,0.008 0.06278,-0.0111 0.06278,-0.0648 0,-0.0867 0.06271,-0.22025 0.121967,-0.25982 0.07241,-0.0483 0.189078,-0.0282 0.254292,0.0438 0.06983,0.0772 0.08414,0.21203 0.03907,0.36821 -0.03549,0.12298 0.02699,0.13286 0.103343,0.0163 z"
         style="fill:#000000;fill-opacity:1;stroke-width:0.0358756" />
    </g>
    <g
       style="stroke:#ff0000;stroke-opacity:1"
       transform="translate(5.2186594,-2.7487623)"
       id="g856">
      <path
         style="fill:none;stroke:#ff0000;stroke-width:0.79375;stroke-linecap:butt;stroke-linejoin:miter;stroke-miterlimit:4;stroke-dasharray:none;stroke-opacity:1"
         d="m 68.578638,123.9494 4.047866,4.04787"
         id="path837"
         inkscape:connector-curvature="0" />
      <path
         inkscape:connector-curvature="0"
         id="path837-3"
         d="m 72.626504,123.9494 -4.047866,4.04787"
         style="fill:none;stroke:#ff0000;stroke-width:0.79375;stroke-linecap:butt;stroke-linejoin:miter;stroke-miterlimit:4;stroke-dasharray:none;stroke-opacity:1" />
    </g>
  </g>
</svg>
